[gd_scene load_steps=5 format=2]

[ext_resource path="res://data/scenes/weapons/Projectile/gun_00/Gun_00_Bullet.gd" type="Script" id=1]

[sub_resource type="BoxShape" id=1]
extents = Vector3( 0.004, 0.004, 0.01 )

[sub_resource type="SpatialMaterial" id=2]
albedo_color = Color( 0.992157, 0.741176, 0.258824, 1 )
emission_enabled = true
emission = Color( 1, 0.803922, 0.345098, 1 )
emission_energy = 2.0
emission_operator = 0
emission_on_uv2 = false

[sub_resource type="CubeMesh" id=3]
material = SubResource( 2 )
size = Vector3( 0.008, 0.008, 0.02 )

[node name="Gun_00_Bullet" type="RigidBody"]
mass = 0.05
contacts_reported = 1
contact_monitor = true
script = ExtResource( 1 )

[node name="CollisionShape" type="CollisionShape" parent="."]
shape = SubResource( 1 )

[node name="Area" type="Area" parent="."]

[node name="CollisionShape" type="CollisionShape" parent="Area"]
shape = SubResource( 1 )

[node name="MeshInstance" type="MeshInstance" parent="."]
mesh = SubResource( 3 )
material/0 = null

[node name="OmniLight" type="OmniLight" parent="."]
light_color = Color( 0.992157, 0.847059, 0.505882, 1 )
light_energy = 0.5
light_indirect_energy = 0.0
light_specular = 0.0
shadow_enabled = true
[connection signal="body_entered" from="." to="." method="_on_Gun_00_Bullet_body_entered"]
